…
# Use `lubridate` to fix dates, as they are given as characters.

library(lubridate)
approval_polllist_converted <- approval_polllist %>% 
  mutate(modeldate = mdy(modeldate),
         startdate = mdy(startdate), 
         enddate = mdy(enddate))

approval_polllist_converted

## # A tibble: 15,619 x 22
##    president subgroup modeldate  startdate  enddate    pollster grade samplesize
##    <chr>     <chr>    <date>     <date>     <date>     <chr>    <chr>      <dbl>
##  1 Donald T~ All pol~ 2020-09-27 2017-01-20 2017-01-22 Gallup   B           1500
##  2 Donald T~ All pol~ 2020-09-27 2017-01-20 2017-01-22 Morning~ B/C         1992
##  3 Donald T~ All pol~ 2020-09-27 2017-01-20 2017-01-24 Ipsos    B-          1632
##  4 Donald T~ All pol~ 2020-09-27 2017-01-21 2017-01-23 Gallup   B           1500
##  5 Donald T~ All pol~ 2020-09-27 2017-01-21 2017-01-25 Ipsos    B-          1651
##  6 Donald T~ All pol~ 2020-09-27 2017-01-22 2017-01-24 Rasmuss~ C+          1500
##  7 Donald T~ All pol~ 2020-09-27 2017-01-20 2017-01-25 Quinnip~ B+          1190
##  8 Donald T~ All pol~ 2020-09-27 2017-01-22 2017-01-24 Gallup   B           1500
##  9 Donald T~ All pol~ 2020-09-27 2017-01-23 2017-01-25 Rasmuss~ C+          1500
## 10 Donald T~ All pol~ 2020-09-27 2017-01-23 2017-01-25 Gallup   B           1500
## # ... with 15,609 more rows, and 14 more variables: population <chr>,
## #   weight <dbl>, influence <dbl>, approve <dbl>, disapprove <dbl>,
## #   adjusted_approve <dbl>, adjusted_disapprove <dbl>, multiversions <chr>,
## #   tracking <lgl>, url <chr>, poll_id <dbl>, question_id <dbl>,
## #   createddate <chr>, timestamp <chr>
…
weekly_net_approval

## # A tibble: 192 x 10
## # Groups:   year [4]
##     year  week mean_weekly_nar sd_weekly_nar count_weekly_nar t_distribution
##    <dbl> <dbl>           <dbl>         <dbl>            <int>          <dbl>
##  1  2017     4           2.96           7.67               14           2.16
##  2  2017     5           1.85           3.67               20           2.09
##  3  2017     6          -2.06           5.82               25           2.06
##  4  2017     7          -2.46           6.35               25           2.06
##  5  2017     8          -3.32           5.96               23           2.07
##  6  2017     9          -0.704          3.81               23           2.07
##  7  2017    10          -3.13           4.49               25           2.06
##  8  2017    11          -4.67           4.43               25           2.06
##  9  2017    12          -5.6            6.71               24           2.07
## 10  2017    13          -9.89           3.94               25           2.06
## # ... with 182 more rows, and 4 more variables: se_weekly_nar <dbl>,
## #   interval_value <dbl>, low_ci <dbl>, high_ci <dbl>
…
Compare Confidence Intervals

Comparing the confidence intervals for week 15 (6-12 April 2020) and week 34 (17-23 August 2020).

ci_wna <- weekly_net_approval %>% 
  mutate(ci = interval_value * 2)

ci_wna

## # A tibble: 192 x 11
## # Groups:   year [4]
##     year  week mean_weekly_nar sd_weekly_nar count_weekly_nar t_distribution
##    <dbl> <dbl>           <dbl>         <dbl>            <int>          <dbl>
##  1  2017     4           2.96           7.67               14           2.16
##  2  2017     5           1.85           3.67               20           2.09
##  3  2017     6          -2.06           5.82               25           2.06
##  4  2017     7          -2.46           6.35               25           2.06
##  5  2017     8          -3.32           5.96               23           2.07
##  6  2017     9          -0.704          3.81               23           2.07
##  7  2017    10          -3.13           4.49               25           2.06
##  8  2017    11          -4.67           4.43               25           2.06
##  9  2017    12          -5.6            6.71               24           2.07
## 10  2017    13          -9.89           3.94               25           2.06
## # ... with 182 more rows, and 5 more variables: se_weekly_nar <dbl>,
## #   interval_value <dbl>, low_ci <dbl>, high_ci <dbl>, ci <dbl>
…
